City of Syracuse Snowplow Analysis
…
What areas are cleared the most?

One question of interest is what streets of the city are plowed most often.

streets_df <- completed_df %>%
  filter(plow == 1) %>%
  mutate(street = str_trim(
                  str_remove(
                  str_remove(address, "\\d+.(\\d+)?"), "(&.+)|(TO .*)"))) %>%
  count(street)
  
streets_df[order(streets_df$n, decreasing = TRUE),]

## # A tibble: 371 x 2
##    street                      n
##    <chr>                   <int>
##  1 CANAL ST                 1193
##  2 CANAL ST SYRACUSE 13210   432
##  3 SIMON DR SYRACUSE 13224   394
##  4 JAMES ST                  234
##  5 EB I 690 SYRACUSE 13210   182
##  6 <NA>                      170
##  7 COURT ST                  147
##  8 SALINA ST S               146
##  9 GRANT BLVD                136
## 10 ALLEN ST                  127
## # ... with 361 more rows
…
